…
    ## Warning in full_join(dn_nc, lq_nc, by = "state"): Detected an unexpected many-to-many relationship between `x` and `y`.
    ## ℹ Row 1 of `x` matches multiple rows in `y`.
    ## ℹ Row 1 of `y` matches multiple rows in `x`.
    ## ℹ If a many-to-many relationship is expected, set `relationship =
    ##   "many-to-many"` to silence this warning.

``` r
dn_lq_nc
```

    ## # A tibble: 336 × 11
    ##    address.x    city.x state zip.x longitude.x latitude.x address.y city.y zip.y
    ##    <chr>        <chr>  <chr> <chr>       <dbl>      <dbl> <chr>     <chr>  <chr>
    ##  1 1 Regent Pa… Ashev… NC    28806       -82.6       35.6 165 Hwy … "\nBo… 28607
    ##  2 1 Regent Pa… Ashev… NC    28806       -82.6       35.6 3127 Slo… "\nCh… 28208
    ##  3 1 Regent Pa… Ashev… NC    28806       -82.6       35.6 4900 Sou… "\nCh… 28217
    ##  4 1 Regent Pa… Ashev… NC    28806       -82.6       35.6 4414 Dur… "\nDu… 27707
    ##  5 1 Regent Pa… Ashev… NC    28806       -82.6       35.6 1910 Wes… "\nDu… 27713
    ##  6 1 Regent Pa… Ashev… NC    28806       -82.6       35.6 1201 Lan… "\nGr… 27407
    ##  7 1 Regent Pa… Ashev… NC    28806       -82.6       35.6 1607 Fai… "\nCo… 28613
    ##  8 1 Regent Pa… Ashev… NC    28806       -82.6       35.6 191 Cres… "\nCa… 27518
    ##  9 1 Regent Pa… Ashev… NC    28806       -82.6       35.6 2211 Sum… "\nRa… 27612
    ## 10 1 Regent Pa… Ashev… NC    28806       -82.6       35.6 1001 Aer… "\nMo… 27560
    ## # ℹ 326 more rows
    ## # ℹ 2 more variables: longitude.y <dbl>, latitude.y <dbl>
…
    ## [1] 107.801 155.423 159.913 328.301 334.918 247.847

``` r
# grouby by Denny's locations + new var w info for minimum distance

dn_lq_nc_mindist <- dn_lq_nc %>%
  group_by(address.x) %>%
  mutate(distance = haversine(longitude.x, latitude.x, longitude.y, latitude.y)) %>%
  summarize(closest = min(distance, na.rm = TRUE), .groups = "drop")

# check 
dn_lq_nc_mindist
```

    ## # A tibble: 28 × 2
    ##    address.x                 closest
    ##    <chr>                       <dbl>
    ##  1 1 Regent Park Boulevard     108. 
    ##  2 101 Wintergreen Dr          120. 
    ##  3 103 Sedgehill Dr             26.7
    ##  4 1043 Jimmie Kerr Road        36.1
    ##  5 1201 S College Road         188. 
    ##  6 1209 Burkemount Avenue       39.1
    ##  7 1493 Us Hwy 74-A Bypass      70.1
    ##  8 1524 Dabney Dr               59.5
    ##  9 1550 Four Seasons           115. 
    ## 10 1800 Princeton-Kenly Road    55.9
    ## # ℹ 18 more rows
…
    ## Warning in full_join(dn_tx, lq_tx, by = "state"): Detected an unexpected many-to-many relationship between `x` and `y`.
    ## ℹ Row 1 of `x` matches multiple rows in `y`.
    ## ℹ Row 1 of `y` matches multiple rows in `x`.
    ## ℹ If a many-to-many relationship is expected, set `relationship =
    ##   "many-to-many"` to silence this warning.

``` r
dn_lq_tx
```

    ## # A tibble: 47,400 × 11
    ##    address.x    city.x state zip.x longitude.x latitude.x address.y city.y zip.y
    ##    <chr>        <chr>  <chr> <chr>       <dbl>      <dbl> <chr>     <chr>  <chr>
    ##  1 120 East I-… Abile… TX    79601       -99.6       32.4 3018 Cat… "\nAb… 79606
    ##  2 120 East I-… Abile… TX    79601       -99.6       32.4 3501 Wes… "\nAb… 79601
    ##  3 120 East I-… Abile… TX    79601       -99.6       32.4 14925 La… "\nAd… 75254
    ##  4 120 East I-… Abile… TX    79601       -99.6       32.4 909 East… "\nAl… 78516
    ##  5 120 East I-… Abile… TX    79601       -99.6       32.4 2400 Eas… "\nAl… 78332
    ##  6 120 East I-… Abile… TX    79601       -99.6       32.4 1220 Nor… "\nAl… 75013
    ##  7 120 East I-… Abile… TX    79601       -99.6       32.4 1165 Hwy… "\nAl… 76009
    ##  8 120 East I-… Abile… TX    79601       -99.6       32.4 880 Sout… "\nAl… 77511
    ##  9 120 East I-… Abile… TX    79601       -99.6       32.4 1708 Int… "\nAm… 79103
    ## 10 120 East I-… Abile… TX    79601       -99.6       32.4 9305 Eas… "\nAm… 79118
    ## # ℹ 47,390 more rows
    ## # ℹ 2 more variables: longitude.y <dbl>, latitude.y <dbl>
…
    ## [1]  13.018   9.411 269.474 710.415 542.135 288.237

``` r
# grouby by Denny's locations + new var w info for minimum distance

dn_lq_tx_mindist <- dn_lq_tx %>%
  group_by(address.x) %>%
  mutate(distance = haversine(longitude.x, latitude.x, longitude.y, latitude.y)) %>%
  summarize(closest = min(distance, na.rm = TRUE), .groups = "drop")

# check 
dn_lq_tx_mindist
```

    ## # A tibble: 200 × 2
    ##    address.x             closest
    ##    <chr>                   <dbl>
    ##  1 100 Cottonwood         33.6  
    ##  2 100 E Pinehurst         1.39 
    ##  3 100 Us Highway 79 S    33.9  
    ##  4 101 N Fm 707           10.3  
    ##  5 1011 Beltway Parkway   14.0  
    ##  6 1015 Spur 350 West      1.74 
    ##  7 1015 West Main St       1.10 
    ##  8 10367 Highway 59       37.6  
    ##  9 10433 N Central Expwy   0.618
    ## 10 105 W 42nd St           6.88 
    ## # ℹ 190 more rows
…
    ## Warning in full_join(dn_ca, lq_ca, by = "state"): Detected an unexpected many-to-many relationship between `x` and `y`.
    ## ℹ Row 1 of `x` matches multiple rows in `y`.
    ## ℹ Row 1 of `y` matches multiple rows in `x`.
    ## ℹ If a many-to-many relationship is expected, set `relationship =
    ##   "many-to-many"` to silence this warning.

``` r
dn_lq_ca
```

    ## # A tibble: 22,568 × 11
    ##    address.x    city.x state zip.x longitude.x latitude.x address.y city.y zip.y
    ##    <chr>        <chr>  <chr> <chr>       <dbl>      <dbl> <chr>     <chr>  <chr>
    ##  1 14240 Us Hi… Adela… CA    92301       -117.       34.5 1752 Cle… "\nAn… 92802
    ##  2 14240 Us Hi… Adela… CA    92301       -117.       34.5 8858 Spe… "\nBa… 93308
    ##  3 14240 Us Hi… Adela… CA    92301       -117.       34.5 3232 Riv… "\nBa… 93308
    ##  4 14240 Us Hi… Adela… CA    92301       -117.       34.5 920 Univ… "\nBe… 94710
    ##  5 14240 Us Hi… Adela… CA    92301       -117.       34.5 3 Center… "\nLa… 90623
    ##  6 14240 Us Hi… Adela… CA    92301       -117.       34.5 1771 Res… "\nDa… 95618
    ##  7 14240 Us Hi… Adela… CA    92301       -117.       34.5 6275 Dub… "\nDu… 94568
    ##  8 14240 Us Hi… Adela… CA    92301       -117.       34.5 316 Pitt… "\nFa… 94534
    ##  9 14240 Us Hi… Adela… CA    92301       -117.       34.5 190 N. 1… "\nFo… 93625
    ## 10 14240 Us Hi… Adela… CA    92301       -117.       34.5 46200 La… "\nFr… 94538
    ## # ℹ 22,558 more rows
    ## # ℹ 2 more variables: longitude.y <dbl>, latitude.y <dbl>
…
    ## [1]  91.358 184.559 178.512 576.540  92.629 592.117

``` r
# grouby by Denny's locations + new var w info for minimum distance

dn_lq_ca_mindist <- dn_lq_ca %>%
  group_by(address.x) %>%
  mutate(distance = haversine(longitude.x, latitude.x, longitude.y, latitude.y)) %>%
  summarize(closest = min(distance, na.rm = TRUE), .groups = "drop")

# check 
dn_lq_ca_mindist
```

    ## # A tibble: 403 × 2
    ##    address.x            closest
    ##    <chr>                  <dbl>
    ##  1 #2 Serra Monte         6.24 
    ##  2 10 Airport Blvd        0.093
    ##  3 1000 Imola Ave        14.5  
    ##  4 1000 W Steele Lane    58.7  
    ##  5 1001 E Capitol        13.5  
    ##  6 1010 W Alameda Ave    24.8  
    ##  7 1011 Riley Street     11.4  
    ##  8 1014 N Main St       137.   
    ##  9 1015 Blossom Hill Rd  15.4  
    ## 10 1019 East Main St     80.3  
    ## # ℹ 393 more rows
…
